{
  "setting": [
    {
      "clube": {
        "active": true,
        "text1": "Prepare-se para a Black Friday Condor 2019.",
        "text2": "Cadastre-se no Clube Condor para receber todas as nossas ofertas em primeira mão!",
        "textButtom": "Cadastrar",
        "url": "https://www.promocoescondor.com.br"
      }
    },
    {
      "download": {
        "active": true,
        "url": "https://www.promocoescondor.com.br",
        "text1": "Cadastre-se no Clube Condor para ter acesso aos nossos descontos incríveis.",
        "textButtom": "Clube Condor",
        "text2": "Você também pode baixar o aplicativo do Clube Condor para ter acesso as melhores ofertas.",
        "text3": "Baixe já!"
      }
    },
    {
      "lojas": {
        "active": true,
        "text1": "Quer aproveitar estas e outras grandes ofertas? Clique",
        "text2": " aqui",
        "text3": " para localizar o Condor mais próximo de você!",
        "url": "https://www.condor.com.br/lojas"
      }
    },
    {
      "radar": {
        "active": true,
        "img1": "./assets/images/b_radar.jpg",
        "img2": "./assets/images/banner_radar_mobile.jpg",
        "url": "https://www.condor.com.br/radar_de_ofertas/radar_de_ofertas"
      }
    },
    {
      "black": {
        "active": true,
        "title": "Sobre a Black Friday",
        "url": "https://www.condor.com.br/blog/black-friday-o-que-e-e-quando-acontece-no-brasil/",
        "img1": "./assets/images/img1.jpg",
        "alt1": "O que é?",
        "text1": "A Black Friday é a maior liquidação do varejo brasileiro e mundial. Acredita-se que a data teve início nos Estados Unidos, nos anos 1970, sendo comemorada horas depois do <span class='b-09'>Dia de Ação de Graças</span>, ou seja, na quarta sexta-feira do mês de novembro. ",
        "img2": "./assets/images/img2.jpg",
        "alt2": "Quando vai ser?",
        "text2": "<p>Neste ano, a Black Friday acontecerá na última sexta-feira do mês de novembro, dia 29/11. Por isso, reserve a data em seu calendário e programa-se para economizar muito com o <span class='b-08'>Esquenta Black Friday Condor</span> e a <span class='b-09'>Black Friday Condor</span>. </p>"
      }
    },
    {
      "blogger": {
        "active": true,
        "title": "",
        "buttom": "ver todos",
        "category": 959
      }
    },
    {
      "footer": {
        "active": true,
        "title": "@Condor 2019. Todos os direitos reservados. ",
        "fb": "",
        "tw": "",
        "ig": "",
        "yt": ""
      }
    },
    {
      "contagem": {
        "active": true,
        "title": "As maiores promoções desta <br>Black Friday começam em",
        "data": "November 29, 2019 00:00"
      }
    },
    {
      "ofertas": {
        "active": true,
        "title": "Confira as ofertas da Acelera Black Friday",
        "campanha": 223468,
        "condor": 6
      }
    },
    {
      "carousel": {
        "active": true,
        "imagems": [
          {
            "imgDesktop": "",
            "imgMobile": ""
          },
          {
            "imgDesktop": "",
            "imgMobile": ""
          },
          {
            "imgDesktop": "",
            "imgMobile": ""
          },
          {
            "imgDesktop": "",
            "imgMobile": ""
          }
        ]
      }
    }
  ]
}
